// Jest Snapshot v1, https://goo.gl/fbAQLP

exports[`C:\\xampp\\htdocs\\fortunica-api\\src\\presenter\\questions\\createQuestion\\createQuestion.test.js should fail to create question user_id is not provided 1`] = `
Object {
  "errors": Object {
    "user_id": "Missing required value in 'question.user_id'",
  },
  "message": "Unprocessable entity",
}
`;

exports[`C:\\xampp\\htdocs\\fortunica-api\\src\\presenter\\questions\\createQuestion\\createQuestion.test.js should fail to create question when body is missing 1`] = `
Object {
  "errors": Object {
    "body": "Missing required value in 'question.body'",
  },
  "message": "Unprocessable entity",
}
`;

exports[`C:\\xampp\\htdocs\\fortunica-api\\src\\presenter\\questions\\createQuestion\\createQuestion.test.js should fail to create question when invalid token provided in authorization header 1`] = `
Object {
  "message": "Invalid JWT token",
}
`;

exports[`C:\\xampp\\htdocs\\fortunica-api\\src\\presenter\\questions\\createQuestion\\createQuestion.test.js should fail to create question when title is missing 1`] = `
Object {
  "errors": Object {
    "title": "Missing required value in 'question.title'",
  },
  "message": "Unprocessable entity",
}
`;

exports[`C:\\xampp\\htdocs\\fortunica-api\\src\\presenter\\questions\\createQuestion\\createQuestion.test.js should fail to create question when unauthenticated 1`] = `
Object {
  "message": "Missing JWT token",
}
`;

exports[`C:\\xampp\\htdocs\\fortunica-api\\src\\presenter\\questions\\createQuestion\\createQuestion.test.js should fail to create question when user_id does not exist 1`] = `
Object {
  "message": "No User4 Model found",
}
`;
